ARMY NO,RANK,SAINIK NAME,DATE OF CAS,SERVING UNIT,PARENT UNIT,SALUTATION,NOK NAME,NOK RELATIOSHIP,SAATHI NAME,	SAATHI TELEPHONE NUMBER,ERRORS 
,SUB,G DEEPAK,1-Oct-14,SWCCIU,Corps of Intelligence,SMT, V ANJALA,WIFE, Mahendran C,9444973117,Army no-sainik name-cas date are mandatory fields
7201,SUB,G DEEPAK,1-Oct-14,SWCCIU,Corps of Intelligence,SMT, V ANJALA,WIFE, Mahendran C,9444973117,NOK Exits for this Army Number
7203,SUB,G DEEPAK,1-Oct-14,SWCCIU,Corps of Intelligence,SMT, V ANJALA,WIFE, Mahendran C,9444973117,NOK Exits for this Army Number
7204,SUB,G DEEPAK,1-Oct-14,SWCCIU,Corps of Intelligence,SMT, V ANJALA,WIFE, Mahendran C,9444973117,NOK Exits for this Army Number
7205,SUB,G DEEPAK,1-Oct-14,SWCCIU,Corps of Intelligence,SMT, V ANJALA,WIFE, Mahendran C,9444973117,NOK Exits for this Army Number
7206,SUB,,1-Oct-14,SWCCIU,Corps of Intelligence,SMT, V ANJALA,WIFE, Mahendran C,9444973117,Army no-sainik name-cas date are mandatory fields
,SUB,G DEEPAK,1-Oct-14,SWCCIU,Corps of Intelligence,SMT, V ANJALA,WIFE, Mahendran C,9444973117,Army no-sainik name-cas date are mandatory fields
7201,SUB,G DEEPAK,1-Oct-14,SWCCIU,Corps of Intelligence,SMT, V ANJALA,WIFE, Mahendran C,9444973117,Duplicate Army number
7203,SUB,G DEEPAK,1-Oct-14,SWCCIU,Corps of Intelligence,SMT, V ANJALA,WIFE, Mahendran C,9444973117,Duplicate Army number
7204,SUB,G DEEPAK,1-Oct-14,SWCCIU,Corps of Intelligence,SMT, V ANJALA,WIFE, Mahendran C,9444973117,Duplicate Army number
7205,SUB,G DEEPAK,1-Oct-14,SWCCIU,Corps of Intelligence,SMT, V ANJALA,WIFE, Mahendran C,9444973117,Duplicate Army number
7206,SUB,,1-Oct-14,SWCCIU,Corps of Intelligence,SMT, V ANJALA,WIFE, Mahendran C,9444973117,Army no-sainik name-cas date are mandatory fields
,SUB,G DEEPAK,1-Oct-14,SWCCIU,Corps of Intelligence,SMT, V ANJALA,WIFE, Mahendran C,9444973117,Army no-sainik name-cas date are mandatory fields
7201,SUB,G DEEPAK,1-Oct-14,SWCCIU,Corps of Intelligence,SMT, V ANJALA,WIFE, Mahendran C,9444973117,Duplicate Army number
7203,SUB,G DEEPAK,1-Oct-14,SWCCIU,Corps of Intelligence,SMT, V ANJALA,WIFE, Mahendran C,9444973117,Duplicate Army number
7204,SUB,G DEEPAK,1-Oct-14,SWCCIU,Corps of Intelligence,SMT, V ANJALA,WIFE, Mahendran C,9444973117,Duplicate Army number
7205,SUB,G DEEPAK,1-Oct-14,SWCCIU,Corps of Intelligence,SMT, V ANJALA,WIFE, Mahendran C,9444973117,Duplicate Army number
7206,SUB,,1-Oct-14,SWCCIU,Corps of Intelligence,SMT, V ANJALA,WIFE, Mahendran C,9444973117,Army no-sainik name-cas date are mandatory fields
,SUB,G DEEPAK,1-Oct-14,SWCCIU,Corps of Intelligence,SMT, V ANJALA,WIFE, Mahendran C,9444973117,Army no-sainik name-cas date are mandatory fields
7201,SUB,G DEEPAK,1-Oct-14,SWCCIU,Corps of Intelligence,SMT, V ANJALA,WIFE, Mahendran C,9444973117,Duplicate Army number
7203,SUB,G DEEPAK,1-Oct-14,SWCCIU,Corps of Intelligence,SMT, V ANJALA,WIFE, Mahendran C,9444973117,Duplicate Army number
7204,SUB,G DEEPAK,1-Oct-14,SWCCIU,Corps of Intelligence,SMT, V ANJALA,WIFE, Mahendran C,9444973117,Duplicate Army number
7205,SUB,G DEEPAK,1-Oct-14,SWCCIU,Corps of Intelligence,SMT, V ANJALA,WIFE, Mahendran C,9444973117,Duplicate Army number
7206,SUB,,1-Oct-14,SWCCIU,Corps of Intelligence,SMT, V ANJALA,WIFE, Mahendran C,9444973117,Army no-sainik name-cas date are mandatory fields
,SUB,G DEEPAK,1-Oct-14,SWCCIU,Corps of Intelligence,SMT, V ANJALA,WIFE, Mahendran C,9444973117,Army no-sainik name-cas date are mandatory fields
7201,SUB,G DEEPAK,1-Oct-14,SWCCIU,Corps of Intelligence,SMT, V ANJALA,WIFE, Mahendran C,9444973117,Duplicate Army number
7203,SUB,G DEEPAK,1-Oct-14,SWCCIU,Corps of Intelligence,SMT, V ANJALA,WIFE, Mahendran C,9444973117,Duplicate Army number
7204,SUB,G DEEPAK,1-Oct-14,SWCCIU,Corps of Intelligence,SMT, V ANJALA,WIFE, Mahendran C,9444973117,Duplicate Army number
7205,SUB,G DEEPAK,1-Oct-14,SWCCIU,Corps of Intelligence,SMT, V ANJALA,WIFE, Mahendran C,9444973117,Duplicate Army number
7206,SUB,,1-Oct-14,SWCCIU,Corps of Intelligence,SMT, V ANJALA,WIFE, Mahendran C,9444973117,Army no-sainik name-cas date are mandatory fields
