FAMILY,,,,,,,,,,,,,,,,
SALUTATION, NAME, RELATIONSHIP,DEFINE RELATION,MARRIED DATE,DOB,ADDRESS 1,ADDRESS 2,STATE,DISTRICT,TEHSIL,POST,CONTACT 1,CONTACT 2,VOCATION,EDUCATION QAULIFICATION,ARMY NO
,,,,,,,,,,,,,,,,
,,Others,define relation,,,,,,,,,,,,,
,,,,,,,,,,,,,,,,
,,Wife,,12/12/1997,,,,,,,,,,,,
